{
  "project_info": {
    "project_number": "725531358527",
    "firebase_url": "https://moviles42069.firebaseio.com",
    "project_id": "moviles42069",
    "storage_bucket": "moviles42069.appspot.com"
  },
  "client": [
    {
      "client_info": {
        "mobilesdk_app_id": "1:725531358527:android:3c45ce7ff9bf476b504f8a",
        "android_client_info": {
          "package_name": "com.example.funky_munch"
        }
      },
      "oauth_client": [
        {
          "client_id": "725531358527-vnl6lna6fkbb0b6u88piavkqqodst7bp.apps.googleusercontent.com",
          "client_type": 3
        }
      ],
      "api_key": [
        {
          "current_key": "AIzaSyALYz-EIDYNJVJmN5AAYIfu4OaQs0PwBeU"
        }
      ],
      "services": {
        "appinvite_service": {
          "other_platform_oauth_client": [
            {
              "client_id": "725531358527-vnl6lna6fkbb0b6u88piavkqqodst7bp.apps.googleusercontent.com",
              "client_type": 3
            }
          ]
        }
      }
    },
    {
      "client_info": {
        "mobilesdk_app_id": "1:725531358527:android:30d556e69d59ce7c504f8a",
        "android_client_info": {
          "package_name": "com.example.restaurante"
        }
      },
      "oauth_client": [
        {
          "client_id": "725531358527-vnl6lna6fkbb0b6u88piavkqqodst7bp.apps.googleusercontent.com",
          "client_type": 3
        }
      ],
      "api_key": [
        {
          "current_key": "AIzaSyALYz-EIDYNJVJmN5AAYIfu4OaQs0PwBeU"
        }
      ],
      "services": {
        "appinvite_service": {
          "other_platform_oauth_client": [
            {
              "client_id": "725531358527-vnl6lna6fkbb0b6u88piavkqqodst7bp.apps.googleusercontent.com",
              "client_type": 3
            }
          ]
        }
      }
    }
  ],
  "configuration_version": "1"
}